name	hair	feathers	eggs	milk	airborne	aquatic	predator	toothed	backbone	breathes	venomous	fins	legs	tail	domestic	catsize	type
giraffe	yes	no	no	yes	no	no	no	yes	yes	yes	no	no	4	yes	no	yes	mammal
vampire	yes	no	no	yes	yes	no	no	yes	yes	yes	no	no	2	yes	no	no	mammal
newt	no	no	yes	no	no	yes	yes	yes	yes	yes	no	no	4	yes	no	no	amphibium
wren	no	yes	yes	no	yes	no	no	no	yes	yes	no	no	2	yes	no	no	bird
vole	yes	no	no	yes	no	no	no	yes	yes	yes	no	no	4	yes	no	no	mammal
gull	no	yes	yes	no	yes	yes	yes	no	yes	yes	no	no	2	yes	no	no	bird
honeybee	yes	no	yes	no	yes	no	no	no	no	yes	yes	no	6	no	yes	no	insect
moth	yes	no	yes	no	yes	no	no	no	no	yes	no	no	6	no	no	no	insect
kiwi	no	yes	yes	no	no	no	yes	no	yes	yes	no	no	2	yes	no	no	bird
pheasant	no	yes	yes	no	yes	no	no	no	yes	yes	no	no	2	yes	no	no	bird
raccoon	yes	no	no	yes	no	no	yes	yes	yes	yes	no	no	4	yes	no	yes	mammal
swan	no	yes	yes	no	yes	yes	no	no	yes	yes	no	no	2	yes	no	yes	bird
frog	no	no	yes	no	no	yes	yes	yes	yes	yes	yes	no	4	no	no	no	amphibium
lobster	no	no	yes	no	no	yes	yes	no	no	no	no	no	6	no	no	no	other
chub	no	no	yes	no	no	yes	yes	yes	yes	no	no	yes	0	yes	no	no	fish
wolf	yes	no	no	yes	no	no	yes	yes	yes	yes	no	no	4	yes	no	yes	mammal
vulture	no	yes	yes	no	yes	no	yes	no	yes	yes	no	no	2	yes	no	yes	bird
dove	no	yes	yes	no	yes	no	no	no	yes	yes	no	no	2	yes	yes	no	bird
slug	no	no	yes	no	no	no	no	no	no	yes	no	no	0	no	no	no	other
pussycat	yes	no	no	yes	no	no	yes	yes	yes	yes	no	no	4	yes	yes	yes	mammal
flamingo	no	yes	yes	no	yes	no	no	no	yes	yes	no	no	2	yes	no	yes	bird
reindeer	yes	no	no	yes	no	no	no	yes	yes	yes	no	no	4	yes	yes	yes	mammal
goat	yes	no	no	yes	no	no	no	yes	yes	yes	no	no	4	yes	yes	yes	mammal
ostrich	no	yes	yes	no	no	no	no	no	yes	yes	no	no	2	yes	no	yes	bird
seasnake	no	no	no	no	no	yes	yes	yes	yes	no	yes	no	0	yes	no	no	reptile
tuna	no	no	yes	no	no	yes	yes	yes	yes	no	no	yes	0	yes	no	yes	fish
fruitbat	yes	no	no	yes	yes	no	no	yes	yes	yes	no	no	2	yes	no	no	mammal
bear	yes	no	no	yes	no	no	yes	yes	yes	yes	no	no	4	no	no	yes	mammal
flea	no	no	yes	no	no	no	no	no	no	yes	no	no	6	no	no	no	insect
chicken	no	yes	yes	no	yes	no	no	no	yes	yes	no	no	2	yes	yes	no	bird
deer	yes	no	no	yes	no	no	no	yes	yes	yes	no	no	4	yes	no	yes	mammal
mink	yes	no	no	yes	no	yes	yes	yes	yes	yes	no	no	4	yes	no	yes	mammal
octopus	no	no	yes	no	no	yes	yes	no	no	no	no	no	8	no	no	yes	other
girl	yes	no	no	yes	no	no	yes	yes	yes	yes	no	no	2	no	yes	yes	mammal
skimmer	no	yes	yes	no	yes	yes	yes	no	yes	yes	no	no	2	yes	no	no	bird
gorilla	yes	no	no	yes	no	no	no	yes	yes	yes	no	no	2	no	no	yes	mammal
wasp	yes	no	yes	no	yes	no	no	no	no	yes	yes	no	6	no	no	no	insect
tortoise	no	no	yes	no	no	no	no	no	yes	yes	no	no	4	yes	no	yes	reptile
bass	no	no	yes	no	no	yes	yes	yes	yes	no	no	yes	0	yes	no	no	fish
aardvark	yes	no	no	yes	no	no	yes	yes	yes	yes	no	no	4	no	no	yes	mammal
dolphin	no	no	no	yes	no	yes	yes	yes	yes	yes	no	yes	0	yes	no	yes	mammal
puma	yes	no	no	yes	no	no	yes	yes	yes	yes	no	no	4	yes	no	yes	mammal
wallaby	yes	no	no	yes	no	no	no	yes	yes	yes	no	no	2	yes	no	yes	mammal
mongoose	yes	no	no	yes	no	no	yes	yes	yes	yes	no	no	4	yes	no	yes	mammal
clam	no	no	yes	no	no	no	yes	no	no	no	no	no	0	no	no	no	other
lark	no	yes	yes	no	yes	no	no	no	yes	yes	no	no	2	yes	no	no	bird
sealion	yes	no	no	yes	no	yes	yes	yes	yes	yes	no	yes	2	yes	no	yes	mammal
seal	yes	no	no	yes	no	yes	yes	yes	yes	yes	no	yes	0	no	no	yes	mammal
crow	no	yes	yes	no	yes	no	yes	no	yes	yes	no	no	2	yes	no	no	bird
haddock	no	no	yes	no	no	yes	no	yes	yes	no	no	yes	0	yes	no	no	fish
elephant	yes	no	no	yes	no	no	no	yes	yes	yes	no	no	4	yes	no	yes	mammal
cheetah	yes	no	no	yes	no	no	yes	yes	yes	yes	no	no	4	yes	no	yes	mammal
penguin	no	yes	yes	no	no	yes	yes	no	yes	yes	no	no	2	yes	no	yes	bird
pike	no	no	yes	no	no	yes	yes	yes	yes	no	no	yes	0	yes	no	yes	fish
parakeet	no	yes	yes	no	yes	no	no	no	yes	yes	no	no	2	yes	yes	no	bird
seawasp	no	no	yes	no	no	yes	yes	no	no	no	yes	no	0	no	no	no	other
hamster	yes	no	no	yes	no	no	no	yes	yes	yes	no	no	4	yes	yes	no	mammal
skua	no	yes	yes	no	yes	yes	yes	no	yes	yes	no	no	2	yes	no	no	bird
worm	no	no	yes	no	no	no	no	no	no	yes	no	no	0	no	no	no	other
antelope	yes	no	no	yes	no	no	no	yes	yes	yes	no	no	4	yes	no	yes	mammal
slowworm	no	no	yes	no	no	no	yes	yes	yes	yes	no	no	0	yes	no	no	reptile
mole	yes	no	no	yes	no	no	yes	yes	yes	yes	no	no	4	yes	no	no	mammal
herring	no	no	yes	no	no	yes	yes	yes	yes	no	no	yes	0	yes	no	no	fish
crayfish	no	no	yes	no	no	yes	yes	no	no	no	no	no	6	no	no	no	other
lynx	yes	no	no	yes	no	no	yes	yes	yes	yes	no	no	4	yes	no	yes	mammal
platypus	yes	no	yes	yes	no	yes	yes	no	yes	yes	no	no	4	yes	no	yes	mammal
oryx	yes	no	no	yes	no	no	no	yes	yes	yes	no	no	4	yes	no	yes	mammal
seahorse	no	no	yes	no	no	yes	no	yes	yes	no	no	yes	0	yes	no	no	fish
gnat	no	no	yes	no	yes	no	no	no	no	yes	no	no	6	no	no	no	insect
crab	no	no	yes	no	no	yes	yes	no	no	no	no	no	4	no	no	no	other
hare	yes	no	no	yes	no	no	no	yes	yes	yes	no	no	4	yes	no	no	mammal
rhea	no	yes	yes	no	no	no	yes	no	yes	yes	no	no	2	yes	no	yes	bird
dogfish	no	no	yes	no	no	yes	yes	yes	yes	no	no	yes	0	yes	no	yes	fish
boar	yes	no	no	yes	no	no	yes	yes	yes	yes	no	no	4	yes	no	yes	mammal
starfish	no	no	yes	no	no	yes	yes	no	no	no	no	no	5	no	no	no	other
toad	no	no	yes	no	no	yes	no	yes	yes	yes	no	no	4	no	no	no	amphibium
cavy	yes	no	no	yes	no	no	no	yes	yes	yes	no	no	4	no	yes	no	mammal
porpoise	no	no	no	yes	no	yes	yes	yes	yes	yes	no	yes	0	yes	no	yes	mammal
buffalo	yes	no	no	yes	no	no	no	yes	yes	yes	no	no	4	yes	no	yes	mammal
ladybird	no	no	yes	no	yes	no	yes	no	no	yes	no	no	6	no	no	no	insect
stingray	no	no	yes	no	no	yes	yes	yes	yes	no	yes	yes	0	yes	no	yes	fish
pitviper	no	no	yes	no	no	no	yes	yes	yes	yes	yes	no	0	yes	no	no	reptile
termite	no	no	yes	no	no	no	no	no	no	yes	no	no	6	no	no	no	insect
catfish	no	no	yes	no	no	yes	yes	yes	yes	no	no	yes	0	yes	no	no	fish
housefly	yes	no	yes	no	yes	no	no	no	no	yes	no	no	6	no	no	no	insect
sparrow	no	yes	yes	no	yes	no	no	no	yes	yes	no	no	2	yes	no	no	bird
scorpion	no	no	no	no	no	no	yes	no	no	yes	yes	no	8	yes	no	no	other
sole	no	no	yes	no	no	yes	no	yes	yes	no	no	yes	0	yes	no	no	fish
leopard	yes	no	no	yes	no	no	yes	yes	yes	yes	no	no	4	yes	no	yes	mammal
hawk	no	yes	yes	no	yes	no	yes	no	yes	yes	no	no	2	yes	no	no	bird
duck	no	yes	yes	no	yes	yes	no	no	yes	yes	no	no	2	yes	no	no	bird
lion	yes	no	no	yes	no	no	yes	yes	yes	yes	no	no	4	yes	no	yes	mammal
calf	yes	no	no	yes	no	no	no	yes	yes	yes	no	no	4	yes	yes	yes	mammal
tuatara	no	no	yes	no	no	no	yes	yes	yes	yes	no	no	4	yes	no	no	reptile
piranha	no	no	yes	no	no	yes	yes	yes	yes	no	no	yes	0	yes	no	no	fish
squirrel	yes	no	no	yes	no	no	no	yes	yes	yes	no	no	2	yes	no	no	mammal
opossum	yes	no	no	yes	no	no	yes	yes	yes	yes	no	no	4	yes	no	no	mammal
polecat	yes	no	no	yes	no	no	yes	yes	yes	yes	no	no	4	yes	no	yes	mammal
pony	yes	no	no	yes	no	no	no	yes	yes	yes	no	no	4	yes	yes	yes	mammal
carp	no	no	yes	no	no	yes	no	yes	yes	no	no	yes	0	yes	yes	no	fish
